adder.sim/sim_1/behav/simulate.log
Vivado Simulator 2016.3
Time resolution is 1 ps
                   0  COMP=0 A=0000 Y=xxxx
                   9  COMP=0 A=0000 Y=xxx0
                  12  COMP=0 A=0000 Y=xx00
                  18  COMP=0 A=0000 Y=0000
                 200  COMP=1 A=0000 Y=0000
                 206  COMP=1 A=0000 Y=0001
                 209  COMP=1 A=0000 Y=1110
                 215  COMP=1 A=0000 Y=1100
                 221  COMP=1 A=0000 Y=1000
                 227  COMP=1 A=0000 Y=0000
                 400  COMP=0 A=0001 Y=0000
                 406  COMP=0 A=0001 Y=0001
                 409  COMP=0 A=0001 Y=1111
                 412  COMP=0 A=0001 Y=1101
                 418  COMP=0 A=0001 Y=0001
                 600  COMP=1 A=0001 Y=0001
                 606  COMP=1 A=0001 Y=0000
                 609  COMP=1 A=0001 Y=1111
                 612  COMP=1 A=0001 Y=1101
                 615  COMP=1 A=0001 Y=1111
                 618  COMP=1 A=0001 Y=1011
                 621  COMP=1 A=0001 Y=1111
                 624  COMP=1 A=0001 Y=0111
                 627  COMP=1 A=0001 Y=1111
                 800  COMP=0 A=0010 Y=1111
                 806  COMP=0 A=0010 Y=1110
                 809  COMP=0 A=0010 Y=0010
                1000  COMP=1 A=0010 Y=0010
                1006  COMP=1 A=0010 Y=0011
                1009  COMP=1 A=0010 Y=1100
                1015  COMP=1 A=0010 Y=1110
                1200  COMP=0 A=0011 Y=1110
                1206  COMP=0 A=0011 Y=1111
                1209  COMP=0 A=0011 Y=0001
                1212  COMP=0 A=0011 Y=0011
                1400  COMP=1 A=0011 Y=0011
                1406  COMP=1 A=0011 Y=0010
                1409  COMP=1 A=0011 Y=1101
                1412  COMP=1 A=0011 Y=1111
                1415  COMP=1 A=0011 Y=1101
                1600  COMP=0 A=0100 Y=1101
                1606  COMP=0 A=0100 Y=1100
                1609  COMP=0 A=0100 Y=0100
                1800  COMP=1 A=0100 Y=0100
                1806  COMP=1 A=0100 Y=0101
                1809  COMP=1 A=0100 Y=1010
                1815  COMP=1 A=0100 Y=1000
                1821  COMP=1 A=0100 Y=1100
                2000  COMP=0 A=0101 Y=1100
                2006  COMP=0 A=0101 Y=1101
                2009  COMP=0 A=0101 Y=0011
                2012  COMP=0 A=0101 Y=0001
                2018  COMP=0 A=0101 Y=1101
                2024  COMP=0 A=0101 Y=0101
                2200  COMP=1 A=0101 Y=0101
                2206  COMP=1 A=0101 Y=0100
                2209  COMP=1 A=0101 Y=1011
                2212  COMP=1 A=0101 Y=1001
                2215  COMP=1 A=0101 Y=1011
                2218  COMP=1 A=0101 Y=1111
                2221  COMP=1 A=0101 Y=1011
                2400  COMP=0 A=0110 Y=1011
                2406  COMP=0 A=0110 Y=1010
                2409  COMP=0 A=0110 Y=0110
                2600  COMP=1 A=0110 Y=0110
                2606  COMP=1 A=0110 Y=0111
                2609  COMP=1 A=0110 Y=1000
                2615  COMP=1 A=0110 Y=1010
                2800  COMP=0 A=0111 Y=1010
                2806  COMP=0 A=0111 Y=1011
                2809  COMP=0 A=0111 Y=0101
                2812  COMP=0 A=0111 Y=0111
                3000  COMP=1 A=0111 Y=0111
                3006  COMP=1 A=0111 Y=0110
                3009  COMP=1 A=0111 Y=1001
                3012  COMP=1 A=0111 Y=1011
                3015  COMP=1 A=0111 Y=1001
                3200  COMP=0 A=1000 Y=1001
                3206  COMP=0 A=1000 Y=1000
                3400  COMP=1 A=1000 Y=1000
                3406  COMP=1 A=1000 Y=1001
                3409  COMP=1 A=1000 Y=0110
                3415  COMP=1 A=1000 Y=0100
                3421  COMP=1 A=1000 Y=0000
                3427  COMP=1 A=1000 Y=1000
                3600  COMP=0 A=1001 Y=1000
                3606  COMP=0 A=1001 Y=1001
                3609  COMP=0 A=1001 Y=0111
                3612  COMP=0 A=1001 Y=0101
                3618  COMP=0 A=1001 Y=1001
                3800  COMP=1 A=1001 Y=1001
                3806  COMP=1 A=1001 Y=1000
                3809  COMP=1 A=1001 Y=0111
                3812  COMP=1 A=1001 Y=0101
                3815  COMP=1 A=1001 Y=0111
                3818  COMP=1 A=1001 Y=0011
                3821  COMP=1 A=1001 Y=0111
                3824  COMP=1 A=1001 Y=1111
                3827  COMP=1 A=1001 Y=0111
                4000  COMP=0 A=1010 Y=0111
                4006  COMP=0 A=1010 Y=0110
                4009  COMP=0 A=1010 Y=1010
                4200  COMP=1 A=1010 Y=1010
                4206  COMP=1 A=1010 Y=1011
                4209  COMP=1 A=1010 Y=0100
                4215  COMP=1 A=1010 Y=0110
                4400  COMP=0 A=1011 Y=0110
                4406  COMP=0 A=1011 Y=0111
                4409  COMP=0 A=1011 Y=1001
                4412  COMP=0 A=1011 Y=1011
                4600  COMP=1 A=1011 Y=1011
                4606  COMP=1 A=1011 Y=1010
                4609  COMP=1 A=1011 Y=0101
                4612  COMP=1 A=1011 Y=0111
                4615  COMP=1 A=1011 Y=0101
                4800  COMP=0 A=1100 Y=0101
                4806  COMP=0 A=1100 Y=0100
                4809  COMP=0 A=1100 Y=1100
                5000  COMP=1 A=1100 Y=1100
                5006  COMP=1 A=1100 Y=1101
                5009  COMP=1 A=1100 Y=0010
                5015  COMP=1 A=1100 Y=0000
                5021  COMP=1 A=1100 Y=0100
                5200  COMP=0 A=1101 Y=0100
                5206  COMP=0 A=1101 Y=0101
                5209  COMP=0 A=1101 Y=1011
                5212  COMP=0 A=1101 Y=1001
                5218  COMP=0 A=1101 Y=0101
                5224  COMP=0 A=1101 Y=1101
                5400  COMP=1 A=1101 Y=1101
                5406  COMP=1 A=1101 Y=1100
                5409  COMP=1 A=1101 Y=0011
                5412  COMP=1 A=1101 Y=0001
                5415  COMP=1 A=1101 Y=0011
                5418  COMP=1 A=1101 Y=0111
                5421  COMP=1 A=1101 Y=0011
                5600  COMP=0 A=1110 Y=0011
                5606  COMP=0 A=1110 Y=0010
                5609  COMP=0 A=1110 Y=1110
                5800  COMP=1 A=1110 Y=1110
                5806  COMP=1 A=1110 Y=1111
                5809  COMP=1 A=1110 Y=0000
                5815  COMP=1 A=1110 Y=0010
                6000  COMP=0 A=1111 Y=0010
                6006  COMP=0 A=1111 Y=0011
                6009  COMP=0 A=1111 Y=1101
                6012  COMP=0 A=1111 Y=1111
                6200  COMP=1 A=1111 Y=1111
                6206  COMP=1 A=1111 Y=1110
                6209  COMP=1 A=1111 Y=0001
                6212  COMP=1 A=1111 Y=0011
                6215  COMP=1 A=1111 Y=0001
                6400  COMP=1 A=0000 Y=0001
                6409  COMP=1 A=0000 Y=1110
                6415  COMP=1 A=0000 Y=1100
                6421  COMP=1 A=0000 Y=1000
                6427  COMP=1 A=0000 Y=0000
