adder.sim/sim_1/behav/simulate.log
Vivado Simulator 2016.3
Time resolution is 1 ps
                   0  A=0000 B=0000 S=xxxx
                   6  A=0000 B=0000 S=xxx0
                   9  A=0000 B=0000 S=xx00
                  12  A=0000 B=0000 S=0000
                 200  A=0000 B=0001 S=0000
                 206  A=0000 B=0001 S=0001
                 400  A=0000 B=0010 S=0001
                 406  A=0000 B=0010 S=0010
                 600  A=0000 B=0011 S=0010
                 606  A=0000 B=0011 S=0011
                 800  A=0000 B=0100 S=0011
                 806  A=0000 B=0100 S=0100
                1000  A=0000 B=0101 S=0100
                1006  A=0000 B=0101 S=0101
                1200  A=0000 B=0110 S=0101
                1206  A=0000 B=0110 S=0110
                1400  A=0000 B=0111 S=0110
                1406  A=0000 B=0111 S=0111
                1600  A=0000 B=1000 S=0111
                1606  A=0000 B=1000 S=1000
                1800  A=0000 B=1001 S=1000
                1806  A=0000 B=1001 S=1001
                2000  A=0000 B=1010 S=1001
                2006  A=0000 B=1010 S=1010
                2200  A=0000 B=1011 S=1010
                2206  A=0000 B=1011 S=1011
                2400  A=0000 B=1100 S=1011
                2406  A=0000 B=1100 S=1100
                2600  A=0000 B=1101 S=1100
                2606  A=0000 B=1101 S=1101
                2800  A=0000 B=1110 S=1101
                2806  A=0000 B=1110 S=1110
                3000  A=0000 B=1111 S=1110
                3006  A=0000 B=1111 S=1111
                3200  A=0001 B=0000 S=1111
                3206  A=0001 B=0000 S=0001
                3400  A=0001 B=0001 S=0001
                3406  A=0001 B=0001 S=0000
                3409  A=0001 B=0001 S=0010
                3600  A=0001 B=0010 S=0010
                3606  A=0001 B=0010 S=0001
                3609  A=0001 B=0010 S=0011
                3612  A=0001 B=0010 S=0111
                3615  A=0001 B=0010 S=0011
                3800  A=0001 B=0011 S=0011
                3806  A=0001 B=0011 S=0010
                3809  A=0001 B=0011 S=0000
                3815  A=0001 B=0011 S=0100
                4000  A=0001 B=0100 S=0100
                4006  A=0001 B=0100 S=0011
                4009  A=0001 B=0100 S=0001
                4012  A=0001 B=0100 S=1101
                4018  A=0001 B=0100 S=0101
                4200  A=0001 B=0101 S=0101
                4206  A=0001 B=0101 S=0100
                4209  A=0001 B=0101 S=0110
                4400  A=0001 B=0110 S=0110
                4406  A=0001 B=0110 S=0101
                4409  A=0001 B=0110 S=0111
                4412  A=0001 B=0110 S=0011
                4415  A=0001 B=0110 S=0111
                4418  A=0001 B=0110 S=1111
                4421  A=0001 B=0110 S=0111
                4600  A=0001 B=0111 S=0111
                4606  A=0001 B=0111 S=0110
                4609  A=0001 B=0111 S=0100
                4615  A=0001 B=0111 S=0000
                4621  A=0001 B=0111 S=1000
                4800  A=0001 B=1000 S=1000
                4806  A=0001 B=1000 S=0111
                4809  A=0001 B=1000 S=0101
                4812  A=0001 B=1000 S=1001
                5000  A=0001 B=1001 S=1001
                5006  A=0001 B=1001 S=1000
                5009  A=0001 B=1001 S=1010
                5200  A=0001 B=1010 S=1010
                5206  A=0001 B=1010 S=1001
                5209  A=0001 B=1010 S=1011
                5212  A=0001 B=1010 S=1111
                5215  A=0001 B=1010 S=1011
                5400  A=0001 B=1011 S=1011
                5406  A=0001 B=1011 S=1010
                5409  A=0001 B=1011 S=1000
                5415  A=0001 B=1011 S=1100
                5600  A=0001 B=1100 S=1100
                5606  A=0001 B=1100 S=1011
                5609  A=0001 B=1100 S=1001
                5612  A=0001 B=1100 S=0101
                5618  A=0001 B=1100 S=1101
                5800  A=0001 B=1101 S=1101
                5806  A=0001 B=1101 S=1100
                5809  A=0001 B=1101 S=1110
                6000  A=0001 B=1110 S=1110
                6006  A=0001 B=1110 S=1101
                6009  A=0001 B=1110 S=1111
                6012  A=0001 B=1110 S=1011
                6015  A=0001 B=1110 S=1111
                6018  A=0001 B=1110 S=0111
                6021  A=0001 B=1110 S=1111
                6200  A=0001 B=1111 S=1111
                6206  A=0001 B=1111 S=1110
                6209  A=0001 B=1111 S=1100
                6215  A=0001 B=1111 S=1000
                6221  A=0001 B=1111 S=0000
                6400  A=0010 B=0000 S=0000
                6406  A=0010 B=0000 S=1100
                6409  A=0010 B=0000 S=1110
                6412  A=0010 B=0000 S=0110
                6415  A=0010 B=0000 S=0010
                6600  A=0010 B=0001 S=0010
                6606  A=0010 B=0001 S=0011
                6800  A=0010 B=0010 S=0011
                6806  A=0010 B=0010 S=0000
                6809  A=0010 B=0010 S=0100
                7000  A=0010 B=0011 S=0100
                7006  A=0010 B=0011 S=0101
                7200  A=0010 B=0100 S=0101
                7206  A=0010 B=0100 S=0010
                7209  A=0010 B=0100 S=0110
                7212  A=0010 B=0100 S=1110
                7215  A=0010 B=0100 S=0110
                7400  A=0010 B=0101 S=0110
                7406  A=0010 B=0101 S=0111
                7600  A=0010 B=0110 S=0111
                7606  A=0010 B=0110 S=0100
                7609  A=0010 B=0110 S=0000
                7615  A=0010 B=0110 S=1000
                7800  A=0010 B=0111 S=1000
                7806  A=0010 B=0111 S=1001
                8000  A=0010 B=1000 S=1001
                8006  A=0010 B=1000 S=0110
                8009  A=0010 B=1000 S=0010
                8012  A=0010 B=1000 S=1010
                8200  A=0010 B=1001 S=1010
                8206  A=0010 B=1001 S=1011
                8400  A=0010 B=1010 S=1011
                8406  A=0010 B=1010 S=1000
                8409  A=0010 B=1010 S=1100
                8600  A=0010 B=1011 S=1100
                8606  A=0010 B=1011 S=1101
                8800  A=0010 B=1100 S=1101
                8806  A=0010 B=1100 S=1010
                8809  A=0010 B=1100 S=1110
                8812  A=0010 B=1100 S=0110
                8815  A=0010 B=1100 S=1110
                9000  A=0010 B=1101 S=1110
                9006  A=0010 B=1101 S=1111
                9200  A=0010 B=1110 S=1111
                9206  A=0010 B=1110 S=1100
                9209  A=0010 B=1110 S=1000
                9215  A=0010 B=1110 S=0000
                9400  A=0010 B=1111 S=0000
                9406  A=0010 B=1111 S=0001
                9600  A=0011 B=0000 S=0001
                9606  A=0011 B=0000 S=1111
                9609  A=0011 B=0000 S=1011
                9612  A=0011 B=0000 S=0011
                9800  A=0011 B=0001 S=0011
                9806  A=0011 B=0001 S=0010
                9809  A=0011 B=0001 S=0000
                9815  A=0011 B=0001 S=0100
               10000  A=0011 B=0010 S=0100
               10006  A=0011 B=0010 S=0111
               10009  A=0011 B=0010 S=0101
               10200  A=0011 B=0011 S=0101
               10206  A=0011 B=0011 S=0100
               10209  A=0011 B=0011 S=0110
               10400  A=0011 B=0100 S=0110
               10406  A=0011 B=0100 S=0001
               10409  A=0011 B=0100 S=0111
               10412  A=0011 B=0100 S=1011
               10415  A=0011 B=0100 S=0111
               10418  A=0011 B=0100 S=1111
               10421  A=0011 B=0100 S=0111
               10600  A=0011 B=0101 S=0111
               10606  A=0011 B=0101 S=0110
               10609  A=0011 B=0101 S=0100
               10615  A=0011 B=0101 S=0000
               10621  A=0011 B=0101 S=1000
               10800  A=0011 B=0110 S=1000
               10806  A=0011 B=0110 S=1011
               10809  A=0011 B=0110 S=1001
               11000  A=0011 B=0111 S=1001
               11006  A=0011 B=0111 S=1000
               11009  A=0011 B=0111 S=1010
               11200  A=0011 B=1000 S=1010
               11206  A=0011 B=1000 S=0101
               11209  A=0011 B=1000 S=0011
               11212  A=0011 B=1000 S=1111
               11215  A=0011 B=1000 S=1011
               11400  A=0011 B=1001 S=1011
               11406  A=0011 B=1001 S=1010
               11409  A=0011 B=1001 S=1000
               11415  A=0011 B=1001 S=1100
               11600  A=0011 B=1010 S=1100
               11606  A=0011 B=1010 S=1111
               11609  A=0011 B=1010 S=1101
               11800  A=0011 B=1011 S=1101
               11806  A=0011 B=1011 S=1100
               11809  A=0011 B=1011 S=1110
               12000  A=0011 B=1100 S=1110
               12006  A=0011 B=1100 S=1001
               12009  A=0011 B=1100 S=1111
               12012  A=0011 B=1100 S=0011
               12015  A=0011 B=1100 S=1111
               12018  A=0011 B=1100 S=0111
               12021  A=0011 B=1100 S=1111
               12200  A=0011 B=1101 S=1111
               12206  A=0011 B=1101 S=1110
               12209  A=0011 B=1101 S=1100
               12215  A=0011 B=1101 S=1000
               12221  A=0011 B=1101 S=0000
               12400  A=0011 B=1110 S=0000
               12406  A=0011 B=1110 S=0011
               12409  A=0011 B=1110 S=0001
               12600  A=0011 B=1111 S=0001
               12606  A=0011 B=1111 S=0000
               12609  A=0011 B=1111 S=0010
               12800  A=0100 B=0000 S=0010
               12806  A=0100 B=0000 S=1010
               12809  A=0100 B=0000 S=1100
               12815  A=0100 B=0000 S=0100
               13000  A=0100 B=0001 S=0100
               13006  A=0100 B=0001 S=0101
               13200  A=0100 B=0010 S=0101
               13206  A=0100 B=0010 S=0110
               13400  A=0100 B=0011 S=0110
               13406  A=0100 B=0011 S=0111
               13600  A=0100 B=0100 S=0111
               13606  A=0100 B=0100 S=0000
               13609  A=0100 B=0100 S=1000
               13800  A=0100 B=0101 S=1000
               13806  A=0100 B=0101 S=1001
               14000  A=0100 B=0110 S=1001
               14006  A=0100 B=0110 S=1010
               14200  A=0100 B=0111 S=1010
               14206  A=0100 B=0111 S=1011
               14400  A=0100 B=1000 S=1011
               14406  A=0100 B=1000 S=0100
               14409  A=0100 B=1000 S=1100
               14600  A=0100 B=1001 S=1100
               14606  A=0100 B=1001 S=1101
               14800  A=0100 B=1010 S=1101
               14806  A=0100 B=1010 S=1110
               15000  A=0100 B=1011 S=1110
               15006  A=0100 B=1011 S=1111
               15200  A=0100 B=1100 S=1111
               15206  A=0100 B=1100 S=1000
               15209  A=0100 B=1100 S=0000
               15400  A=0100 B=1101 S=0000
               15406  A=0100 B=1101 S=0001
               15600  A=0100 B=1110 S=0001
               15606  A=0100 B=1110 S=0010
               15800  A=0100 B=1111 S=0010
               15806  A=0100 B=1111 S=0011
               16000  A=0101 B=0000 S=0011
               16006  A=0101 B=0000 S=1101
               16009  A=0101 B=0000 S=0101
               16200  A=0101 B=0001 S=0101
               16206  A=0101 B=0001 S=0100
               16209  A=0101 B=0001 S=0110
               16400  A=0101 B=0010 S=0110
               16406  A=0101 B=0010 S=0101
               16409  A=0101 B=0010 S=0111
               16412  A=0101 B=0010 S=0011
               16415  A=0101 B=0010 S=0111
               16418  A=0101 B=0010 S=1111
               16421  A=0101 B=0010 S=0111
               16600  A=0101 B=0011 S=0111
               16606  A=0101 B=0011 S=0110
               16609  A=0101 B=0011 S=0100
               16615  A=0101 B=0011 S=0000
               16621  A=0101 B=0011 S=1000
               16800  A=0101 B=0100 S=1000
               16806  A=0101 B=0100 S=1111
               16809  A=0101 B=0100 S=1101
               16812  A=0101 B=0100 S=1001
               17000  A=0101 B=0101 S=1001
               17006  A=0101 B=0101 S=1000
               17009  A=0101 B=0101 S=1010
               17200  A=0101 B=0110 S=1010
               17206  A=0101 B=0110 S=1001
               17209  A=0101 B=0110 S=1011
               17212  A=0101 B=0110 S=1111
               17215  A=0101 B=0110 S=1011
               17400  A=0101 B=0111 S=1011
               17406  A=0101 B=0111 S=1010
               17409  A=0101 B=0111 S=1000
               17415  A=0101 B=0111 S=1100
               17600  A=0101 B=1000 S=1100
               17606  A=0101 B=1000 S=0011
               17609  A=0101 B=1000 S=1001
               17612  A=0101 B=1000 S=0101
               17618  A=0101 B=1000 S=1101
               17800  A=0101 B=1001 S=1101
               17806  A=0101 B=1001 S=1100
               17809  A=0101 B=1001 S=1110
               18000  A=0101 B=1010 S=1110
               18006  A=0101 B=1010 S=1101
               18009  A=0101 B=1010 S=1111
               18012  A=0101 B=1010 S=1011
               18015  A=0101 B=1010 S=1111
               18018  A=0101 B=1010 S=0111
               18021  A=0101 B=1010 S=1111
               18200  A=0101 B=1011 S=1111
               18206  A=0101 B=1011 S=1110
               18209  A=0101 B=1011 S=1100
               18215  A=0101 B=1011 S=1000
               18221  A=0101 B=1011 S=0000
               18400  A=0101 B=1100 S=0000
               18406  A=0101 B=1100 S=0111
               18409  A=0101 B=1100 S=0101
               18412  A=0101 B=1100 S=0001
               18600  A=0101 B=1101 S=0001
               18606  A=0101 B=1101 S=0000
               18609  A=0101 B=1101 S=0010
               18800  A=0101 B=1110 S=0010
               18806  A=0101 B=1110 S=0001
               18809  A=0101 B=1110 S=0011
               18812  A=0101 B=1110 S=0111
               18815  A=0101 B=1110 S=0011
               19000  A=0101 B=1111 S=0011
               19006  A=0101 B=1111 S=0010
               19009  A=0101 B=1111 S=0000
               19015  A=0101 B=1111 S=0100
               19200  A=0110 B=0000 S=0100
               19206  A=0110 B=0000 S=1000
               19209  A=0110 B=0000 S=0010
               19212  A=0110 B=0000 S=1010
               19215  A=0110 B=0000 S=1110
               19221  A=0110 B=0000 S=0110
               19400  A=0110 B=0001 S=0110
               19406  A=0110 B=0001 S=0111
               19600  A=0110 B=0010 S=0111
               19606  A=0110 B=0010 S=0100
               19609  A=0110 B=0010 S=0000
               19615  A=0110 B=0010 S=1000
               19800  A=0110 B=0011 S=1000
               19806  A=0110 B=0011 S=1001
               20000  A=0110 B=0100 S=1001
               20006  A=0110 B=0100 S=1110
               20009  A=0110 B=0100 S=1010
               20200  A=0110 B=0101 S=1010
               20206  A=0110 B=0101 S=1011
               20400  A=0110 B=0110 S=1011
               20406  A=0110 B=0110 S=1000
               20409  A=0110 B=0110 S=1100
               20600  A=0110 B=0111 S=1100
               20606  A=0110 B=0111 S=1101
               20800  A=0110 B=1000 S=1101
               20806  A=0110 B=1000 S=0010
               20809  A=0110 B=1000 S=1110
               20812  A=0110 B=1000 S=0110
               20815  A=0110 B=1000 S=1110
               21000  A=0110 B=1001 S=1110
               21006  A=0110 B=1001 S=1111
               21200  A=0110 B=1010 S=1111
               21206  A=0110 B=1010 S=1100
               21209  A=0110 B=1010 S=1000
               21215  A=0110 B=1010 S=0000
               21400  A=0110 B=1011 S=0000
               21406  A=0110 B=1011 S=0001
               21600  A=0110 B=1100 S=0001
               21606  A=0110 B=1100 S=0110
               21609  A=0110 B=1100 S=0010
               21800  A=0110 B=1101 S=0010
               21806  A=0110 B=1101 S=0011
               22000  A=0110 B=1110 S=0011
               22006  A=0110 B=1110 S=0000
               22009  A=0110 B=1110 S=0100
               22200  A=0110 B=1111 S=0100
               22206  A=0110 B=1111 S=0101
               22400  A=0111 B=0000 S=0101
               22406  A=0111 B=0000 S=1011
               22409  A=0111 B=0000 S=0111
               22412  A=0111 B=0000 S=1111
               22415  A=0111 B=0000 S=0111
               22600  A=0111 B=0001 S=0111
               22606  A=0111 B=0001 S=0110
               22609  A=0111 B=0001 S=0100
               22615  A=0111 B=0001 S=0000
               22621  A=0111 B=0001 S=1000
               22800  A=0111 B=0010 S=1000
               22806  A=0111 B=0010 S=1011
               22809  A=0111 B=0010 S=1001
               23000  A=0111 B=0011 S=1001
               23006  A=0111 B=0011 S=1000
               23009  A=0111 B=0011 S=1010
               23200  A=0111 B=0100 S=1010
               23206  A=0111 B=0100 S=1101
               23209  A=0111 B=0100 S=1011
               23212  A=0111 B=0100 S=1111
               23215  A=0111 B=0100 S=1011
               23400  A=0111 B=0101 S=1011
               23406  A=0111 B=0101 S=1010
               23409  A=0111 B=0101 S=1000
               23415  A=0111 B=0101 S=1100
               23600  A=0111 B=0110 S=1100
               23606  A=0111 B=0110 S=1111
               23609  A=0111 B=0110 S=1101
               23800  A=0111 B=0111 S=1101
               23806  A=0111 B=0111 S=1100
               23809  A=0111 B=0111 S=1110
               24000  A=0111 B=1000 S=1110
               24006  A=0111 B=1000 S=0001
               24009  A=0111 B=1000 S=1111
               24012  A=0111 B=1000 S=0011
               24015  A=0111 B=1000 S=1111
               24018  A=0111 B=1000 S=0111
               24021  A=0111 B=1000 S=1111
               24200  A=0111 B=1001 S=1111
               24206  A=0111 B=1001 S=1110
               24209  A=0111 B=1001 S=1100
               24215  A=0111 B=1001 S=1000
               24221  A=0111 B=1001 S=0000
               24400  A=0111 B=1010 S=0000
               24406  A=0111 B=1010 S=0011
               24409  A=0111 B=1010 S=0001
               24600  A=0111 B=1011 S=0001
               24606  A=0111 B=1011 S=0000
               24609  A=0111 B=1011 S=0010
               24800  A=0111 B=1100 S=0010
               24806  A=0111 B=1100 S=0101
               24809  A=0111 B=1100 S=0011
               24812  A=0111 B=1100 S=0111
               24815  A=0111 B=1100 S=0011
               25000  A=0111 B=1101 S=0011
               25006  A=0111 B=1101 S=0010
               25009  A=0111 B=1101 S=0000
               25015  A=0111 B=1101 S=0100
               25200  A=0111 B=1110 S=0100
               25206  A=0111 B=1110 S=0111
               25209  A=0111 B=1110 S=0101
               25400  A=0111 B=1111 S=0101
               25406  A=0111 B=1111 S=0100
               25409  A=0111 B=1111 S=0110
               25600  A=1000 B=0000 S=0110
               25609  A=1000 B=0000 S=1000
               25800  A=1000 B=0001 S=1000
               25806  A=1000 B=0001 S=1001
               26000  A=1000 B=0010 S=1001
               26006  A=1000 B=0010 S=1010
               26200  A=1000 B=0011 S=1010
               26206  A=1000 B=0011 S=1011
               26400  A=1000 B=0100 S=1011
               26406  A=1000 B=0100 S=1100
               26600  A=1000 B=0101 S=1100
               26606  A=1000 B=0101 S=1101
               26800  A=1000 B=0110 S=1101
               26806  A=1000 B=0110 S=1110
               27000  A=1000 B=0111 S=1110
               27006  A=1000 B=0111 S=1111
               27200  A=1000 B=1000 S=1111
               27206  A=1000 B=1000 S=0000
               27400  A=1000 B=1001 S=0000
               27406  A=1000 B=1001 S=0001
               27600  A=1000 B=1010 S=0001
               27606  A=1000 B=1010 S=0010
               27800  A=1000 B=1011 S=0010
               27806  A=1000 B=1011 S=0011
               28000  A=1000 B=1100 S=0011
               28006  A=1000 B=1100 S=0100
               28200  A=1000 B=1101 S=0100
               28206  A=1000 B=1101 S=0101
               28400  A=1000 B=1110 S=0101
               28406  A=1000 B=1110 S=0110
               28600  A=1000 B=1111 S=0110
               28606  A=1000 B=1111 S=0111
               28800  A=1001 B=0000 S=0111
               28806  A=1001 B=0000 S=1001
               29000  A=1001 B=0001 S=1001
               29006  A=1001 B=0001 S=1000
               29009  A=1001 B=0001 S=1010
               29200  A=1001 B=0010 S=1010
               29206  A=1001 B=0010 S=1001
               29209  A=1001 B=0010 S=1011
               29212  A=1001 B=0010 S=1111
               29215  A=1001 B=0010 S=1011
               29400  A=1001 B=0011 S=1011
               29406  A=1001 B=0011 S=1010
               29409  A=1001 B=0011 S=1000
               29415  A=1001 B=0011 S=1100
               29600  A=1001 B=0100 S=1100
               29606  A=1001 B=0100 S=1011
               29609  A=1001 B=0100 S=1001
               29612  A=1001 B=0100 S=0101
               29618  A=1001 B=0100 S=1101
               29800  A=1001 B=0101 S=1101
               29806  A=1001 B=0101 S=1100
               29809  A=1001 B=0101 S=1110
               30000  A=1001 B=0110 S=1110
               30006  A=1001 B=0110 S=1101
               30009  A=1001 B=0110 S=1111
               30012  A=1001 B=0110 S=1011
               30015  A=1001 B=0110 S=1111
               30018  A=1001 B=0110 S=0111
               30021  A=1001 B=0110 S=1111
               30200  A=1001 B=0111 S=1111
               30206  A=1001 B=0111 S=1110
               30209  A=1001 B=0111 S=1100
               30215  A=1001 B=0111 S=1000
               30221  A=1001 B=0111 S=0000
               30400  A=1001 B=1000 S=0000
               30406  A=1001 B=1000 S=1111
               30409  A=1001 B=1000 S=1101
               30412  A=1001 B=1000 S=0001
               30600  A=1001 B=1001 S=0001
               30606  A=1001 B=1001 S=0000
               30609  A=1001 B=1001 S=0010
               30800  A=1001 B=1010 S=0010
               30806  A=1001 B=1010 S=0001
               30809  A=1001 B=1010 S=0011
               30812  A=1001 B=1010 S=0111
               30815  A=1001 B=1010 S=0011
               31000  A=1001 B=1011 S=0011
               31006  A=1001 B=1011 S=0010
               31009  A=1001 B=1011 S=0000
               31015  A=1001 B=1011 S=0100
               31200  A=1001 B=1100 S=0100
               31206  A=1001 B=1100 S=0011
               31209  A=1001 B=1100 S=0001
               31212  A=1001 B=1100 S=1101
               31218  A=1001 B=1100 S=0101
               31400  A=1001 B=1101 S=0101
               31406  A=1001 B=1101 S=0100
               31409  A=1001 B=1101 S=0110
               31600  A=1001 B=1110 S=0110
               31606  A=1001 B=1110 S=0101
               31609  A=1001 B=1110 S=0111
               31612  A=1001 B=1110 S=0011
               31615  A=1001 B=1110 S=0111
               31618  A=1001 B=1110 S=1111
               31621  A=1001 B=1110 S=0111
               31800  A=1001 B=1111 S=0111
               31806  A=1001 B=1111 S=0110
               31809  A=1001 B=1111 S=0100
               31815  A=1001 B=1111 S=0000
               31821  A=1001 B=1111 S=1000
               32000  A=1010 B=0000 S=1000
               32006  A=1010 B=0000 S=0100
               32009  A=1010 B=0000 S=0110
               32012  A=1010 B=0000 S=1110
               32015  A=1010 B=0000 S=1010
               32200  A=1010 B=0001 S=1010
               32206  A=1010 B=0001 S=1011
               32400  A=1010 B=0010 S=1011
               32406  A=1010 B=0010 S=1000
               32409  A=1010 B=0010 S=1100
               32600  A=1010 B=0011 S=1100
               32606  A=1010 B=0011 S=1101
               32800  A=1010 B=0100 S=1101
               32806  A=1010 B=0100 S=1010
               32809  A=1010 B=0100 S=1110
               32812  A=1010 B=0100 S=0110
               32815  A=1010 B=0100 S=1110
               33000  A=1010 B=0101 S=1110
               33006  A=1010 B=0101 S=1111
               33200  A=1010 B=0110 S=1111
               33206  A=1010 B=0110 S=1100
               33209  A=1010 B=0110 S=1000
               33215  A=1010 B=0110 S=0000
               33400  A=1010 B=0111 S=0000
               33406  A=1010 B=0111 S=0001
               33600  A=1010 B=1000 S=0001
               33606  A=1010 B=1000 S=1110
               33609  A=1010 B=1000 S=1010
               33612  A=1010 B=1000 S=0010
               33800  A=1010 B=1001 S=0010
               33806  A=1010 B=1001 S=0011
               34000  A=1010 B=1010 S=0011
               34006  A=1010 B=1010 S=0000
               34009  A=1010 B=1010 S=0100
               34200  A=1010 B=1011 S=0100
               34206  A=1010 B=1011 S=0101
               34400  A=1010 B=1100 S=0101
               34406  A=1010 B=1100 S=0010
               34409  A=1010 B=1100 S=0110
               34412  A=1010 B=1100 S=1110
               34415  A=1010 B=1100 S=0110
               34600  A=1010 B=1101 S=0110
               34606  A=1010 B=1101 S=0111
               34800  A=1010 B=1110 S=0111
               34806  A=1010 B=1110 S=0100
               34809  A=1010 B=1110 S=0000
               34815  A=1010 B=1110 S=1000
               35000  A=1010 B=1111 S=1000
               35006  A=1010 B=1111 S=1001
               35200  A=1011 B=0000 S=1001
               35206  A=1011 B=0000 S=0111
               35209  A=1011 B=0000 S=0011
               35212  A=1011 B=0000 S=1011
               35400  A=1011 B=0001 S=1011
               35406  A=1011 B=0001 S=1010
               35409  A=1011 B=0001 S=1000
               35415  A=1011 B=0001 S=1100
               35600  A=1011 B=0010 S=1100
               35606  A=1011 B=0010 S=1111
               35609  A=1011 B=0010 S=1101
               35800  A=1011 B=0011 S=1101
               35806  A=1011 B=0011 S=1100
               35809  A=1011 B=0011 S=1110
               36000  A=1011 B=0100 S=1110
               36006  A=1011 B=0100 S=1001
               36009  A=1011 B=0100 S=1111
               36012  A=1011 B=0100 S=0011
               36015  A=1011 B=0100 S=1111
               36018  A=1011 B=0100 S=0111
               36021  A=1011 B=0100 S=1111
               36200  A=1011 B=0101 S=1111
               36206  A=1011 B=0101 S=1110
               36209  A=1011 B=0101 S=1100
               36215  A=1011 B=0101 S=1000
               36221  A=1011 B=0101 S=0000
               36400  A=1011 B=0110 S=0000
               36406  A=1011 B=0110 S=0011
               36409  A=1011 B=0110 S=0001
               36600  A=1011 B=0111 S=0001
               36606  A=1011 B=0111 S=0000
               36609  A=1011 B=0111 S=0010
               36800  A=1011 B=1000 S=0010
               36806  A=1011 B=1000 S=1101
               36809  A=1011 B=1000 S=1011
               36812  A=1011 B=1000 S=0111
               36815  A=1011 B=1000 S=0011
               37000  A=1011 B=1001 S=0011
               37006  A=1011 B=1001 S=0010
               37009  A=1011 B=1001 S=0000
               37015  A=1011 B=1001 S=0100
               37200  A=1011 B=1010 S=0100
               37206  A=1011 B=1010 S=0111
               37209  A=1011 B=1010 S=0101
               37400  A=1011 B=1011 S=0101
               37406  A=1011 B=1011 S=0100
               37409  A=1011 B=1011 S=0110
               37600  A=1011 B=1100 S=0110
               37606  A=1011 B=1100 S=0001
               37609  A=1011 B=1100 S=0111
               37612  A=1011 B=1100 S=1011
               37615  A=1011 B=1100 S=0111
               37618  A=1011 B=1100 S=1111
               37621  A=1011 B=1100 S=0111
               37800  A=1011 B=1101 S=0111
               37806  A=1011 B=1101 S=0110
               37809  A=1011 B=1101 S=0100
               37815  A=1011 B=1101 S=0000
               37821  A=1011 B=1101 S=1000
               38000  A=1011 B=1110 S=1000
               38006  A=1011 B=1110 S=1011
               38009  A=1011 B=1110 S=1001
               38200  A=1011 B=1111 S=1001
               38206  A=1011 B=1111 S=1000
               38209  A=1011 B=1111 S=1010
               38400  A=1100 B=0000 S=1010
               38406  A=1100 B=0000 S=0010
               38409  A=1100 B=0000 S=0100
               38415  A=1100 B=0000 S=1100
               38600  A=1100 B=0001 S=1100
               38606  A=1100 B=0001 S=1101
               38800  A=1100 B=0010 S=1101
               38806  A=1100 B=0010 S=1110
               39000  A=1100 B=0011 S=1110
               39006  A=1100 B=0011 S=1111
               39200  A=1100 B=0100 S=1111
               39206  A=1100 B=0100 S=1000
               39209  A=1100 B=0100 S=0000
               39400  A=1100 B=0101 S=0000
               39406  A=1100 B=0101 S=0001
               39600  A=1100 B=0110 S=0001
               39606  A=1100 B=0110 S=0010
               39800  A=1100 B=0111 S=0010
               39806  A=1100 B=0111 S=0011
               40000  A=1100 B=1000 S=0011
               40006  A=1100 B=1000 S=1100
               40009  A=1100 B=1000 S=0100
               40200  A=1100 B=1001 S=0100
               40206  A=1100 B=1001 S=0101
               40400  A=1100 B=1010 S=0101
               40406  A=1100 B=1010 S=0110
               40600  A=1100 B=1011 S=0110
               40606  A=1100 B=1011 S=0111
               40800  A=1100 B=1100 S=0111
               40806  A=1100 B=1100 S=0000
               40809  A=1100 B=1100 S=1000
               41000  A=1100 B=1101 S=1000
               41006  A=1100 B=1101 S=1001
               41200  A=1100 B=1110 S=1001
               41206  A=1100 B=1110 S=1010
               41400  A=1100 B=1111 S=1010
               41406  A=1100 B=1111 S=1011
               41600  A=1101 B=0000 S=1011
               41606  A=1101 B=0000 S=0101
               41609  A=1101 B=0000 S=1101
               41800  A=1101 B=0001 S=1101
               41806  A=1101 B=0001 S=1100
               41809  A=1101 B=0001 S=1110
               42000  A=1101 B=0010 S=1110
               42006  A=1101 B=0010 S=1101
               42009  A=1101 B=0010 S=1111
               42012  A=1101 B=0010 S=1011
               42015  A=1101 B=0010 S=1111
               42018  A=1101 B=0010 S=0111
               42021  A=1101 B=0010 S=1111
               42200  A=1101 B=0011 S=1111
               42206  A=1101 B=0011 S=1110
               42209  A=1101 B=0011 S=1100
               42215  A=1101 B=0011 S=1000
               42221  A=1101 B=0011 S=0000
               42400  A=1101 B=0100 S=0000
               42406  A=1101 B=0100 S=0111
               42409  A=1101 B=0100 S=0101
               42412  A=1101 B=0100 S=0001
               42600  A=1101 B=0101 S=0001
               42606  A=1101 B=0101 S=0000
               42609  A=1101 B=0101 S=0010
               42800  A=1101 B=0110 S=0010
               42806  A=1101 B=0110 S=0001
               42809  A=1101 B=0110 S=0011
               42812  A=1101 B=0110 S=0111
               42815  A=1101 B=0110 S=0011
               43000  A=1101 B=0111 S=0011
               43006  A=1101 B=0111 S=0010
               43009  A=1101 B=0111 S=0000
               43015  A=1101 B=0111 S=0100
               43200  A=1101 B=1000 S=0100
               43206  A=1101 B=1000 S=1011
               43209  A=1101 B=1000 S=0001
               43212  A=1101 B=1000 S=1101
               43218  A=1101 B=1000 S=0101
               43400  A=1101 B=1001 S=0101
               43406  A=1101 B=1001 S=0100
               43409  A=1101 B=1001 S=0110
               43600  A=1101 B=1010 S=0110
               43606  A=1101 B=1010 S=0101
               43609  A=1101 B=1010 S=0111
               43612  A=1101 B=1010 S=0011
               43615  A=1101 B=1010 S=0111
               43618  A=1101 B=1010 S=1111
               43621  A=1101 B=1010 S=0111
               43800  A=1101 B=1011 S=0111
               43806  A=1101 B=1011 S=0110
               43809  A=1101 B=1011 S=0100
               43815  A=1101 B=1011 S=0000
               43821  A=1101 B=1011 S=1000
               44000  A=1101 B=1100 S=1000
               44006  A=1101 B=1100 S=1111
               44009  A=1101 B=1100 S=1101
               44012  A=1101 B=1100 S=1001
               44200  A=1101 B=1101 S=1001
               44206  A=1101 B=1101 S=1000
               44209  A=1101 B=1101 S=1010
               44400  A=1101 B=1110 S=1010
               44406  A=1101 B=1110 S=1001
               44409  A=1101 B=1110 S=1011
               44412  A=1101 B=1110 S=1111
               44415  A=1101 B=1110 S=1011
               44600  A=1101 B=1111 S=1011
               44606  A=1101 B=1111 S=1010
               44609  A=1101 B=1111 S=1000
               44615  A=1101 B=1111 S=1100
               44800  A=1110 B=0000 S=1100
               44806  A=1110 B=0000 S=00