adder.sim/sim_1/behav/simulate.log
Vivado Simulator 2016.3
Time resolution is 1 ps
                   0  CI=0 A=0000 B=0000 S=xxxx
                   6  CI=0 A=0000 B=0000 S=xxx0
                  12  CI=0 A=0000 B=0000 S=xx00
                  15  CI=0 A=0000 B=0000 S=0000
                 200  CI=0 A=0000 B=0001 S=0000
                 206  CI=0 A=0000 B=0001 S=0001
                 400  CI=0 A=0000 B=0010 S=0001
                 406  CI=0 A=0000 B=0010 S=0010
                 600  CI=0 A=0000 B=0011 S=0010
                 606  CI=0 A=0000 B=0011 S=0011
                 800  CI=0 A=0000 B=0100 S=0011
                 806  CI=0 A=0000 B=0100 S=0100
                1000  CI=0 A=0000 B=0101 S=0100
                1006  CI=0 A=0000 B=0101 S=0101
                1200  CI=0 A=0000 B=0110 S=0101
                1206  CI=0 A=0000 B=0110 S=0110
                1400  CI=0 A=0000 B=0111 S=0110
                1406  CI=0 A=0000 B=0111 S=0111
                1600  CI=0 A=0000 B=1000 S=0111
                1606  CI=0 A=0000 B=1000 S=1000
                1800  CI=0 A=0000 B=1001 S=1000
                1806  CI=0 A=0000 B=1001 S=1001
                2000  CI=0 A=0000 B=1010 S=1001
                2006  CI=0 A=0000 B=1010 S=1010
                2200  CI=0 A=0000 B=1011 S=1010
                2206  CI=0 A=0000 B=1011 S=1011
                2400  CI=0 A=0000 B=1100 S=1011
                2406  CI=0 A=0000 B=1100 S=1100
                2600  CI=0 A=0000 B=1101 S=1100
                2606  CI=0 A=0000 B=1101 S=1101
                2800  CI=0 A=0000 B=1110 S=1101
                2806  CI=0 A=0000 B=1110 S=1110
                3000  CI=0 A=0000 B=1111 S=1110
                3006  CI=0 A=0000 B=1111 S=1111
                3200  CI=0 A=0001 B=0000 S=1111
                3206  CI=0 A=0001 B=0000 S=0001
                3400  CI=0 A=0001 B=0001 S=0001
                3406  CI=0 A=0001 B=0001 S=0000
                3412  CI=0 A=0001 B=0001 S=0010
                3600  CI=0 A=0001 B=0010 S=0010
                3606  CI=0 A=0001 B=0010 S=0001
                3612  CI=0 A=0001 B=0010 S=0011
                3615  CI=0 A=0001 B=0010 S=0111
                3618  CI=0 A=0001 B=0010 S=0011
                3800  CI=0 A=0001 B=0011 S=0011
                3806  CI=0 A=0001 B=0011 S=0010
                3812  CI=0 A=0001 B=0011 S=0000
                3818  CI=0 A=0001 B=0011 S=0100
                4000  CI=0 A=0001 B=0100 S=0100
                4006  CI=0 A=0001 B=0100 S=0011
                4012  CI=0 A=0001 B=0100 S=0001
                4015  CI=0 A=0001 B=0100 S=1101
                4021  CI=0 A=0001 B=0100 S=0101
                4200  CI=0 A=0001 B=0101 S=0101
                4206  CI=0 A=0001 B=0101 S=0100
                4212  CI=0 A=0001 B=0101 S=0110
                4400  CI=0 A=0001 B=0110 S=0110
                4406  CI=0 A=0001 B=0110 S=0101
                4412  CI=0 A=0001 B=0110 S=0111
                4415  CI=0 A=0001 B=0110 S=0011
                4418  CI=0 A=0001 B=0110 S=0111
                4421  CI=0 A=0001 B=0110 S=1111
                4424  CI=0 A=0001 B=0110 S=0111
                4600  CI=0 A=0001 B=0111 S=0111
                4606  CI=0 A=0001 B=0111 S=0110
                4612  CI=0 A=0001 B=0111 S=0100
                4618  CI=0 A=0001 B=0111 S=0000
                4624  CI=0 A=0001 B=0111 S=1000
                4800  CI=0 A=0001 B=1000 S=1000
                4806  CI=0 A=0001 B=1000 S=0111
                4812  CI=0 A=0001 B=1000 S=0101
                4815  CI=0 A=0001 B=1000 S=1001
                5000  CI=0 A=0001 B=1001 S=1001
                5006  CI=0 A=0001 B=1001 S=1000
                5012  CI=0 A=0001 B=1001 S=1010
                5200  CI=0 A=0001 B=1010 S=1010
                5206  CI=0 A=0001 B=1010 S=1001
                5212  CI=0 A=0001 B=1010 S=1011
                5215  CI=0 A=0001 B=1010 S=1111
                5218  CI=0 A=0001 B=1010 S=1011
                5400  CI=0 A=0001 B=1011 S=1011
                5406  CI=0 A=0001 B=1011 S=1010
                5412  CI=0 A=0001 B=1011 S=1000
                5418  CI=0 A=0001 B=1011 S=1100
                5600  CI=0 A=0001 B=1100 S=1100
                5606  CI=0 A=0001 B=1100 S=1011
                5612  CI=0 A=0001 B=1100 S=1001
                5615  CI=0 A=0001 B=1100 S=0101
                5621  CI=0 A=0001 B=1100 S=1101
                5800  CI=0 A=0001 B=1101 S=1101
                5806  CI=0 A=0001 B=1101 S=1100
                5812  CI=0 A=0001 B=1101 S=1110
                6000  CI=0 A=0001 B=1110 S=1110
                6006  CI=0 A=0001 B=1110 S=1101
                6012  CI=0 A=0001 B=1110 S=1111
                6015  CI=0 A=0001 B=1110 S=1011
                6018  CI=0 A=0001 B=1110 S=1111
                6021  CI=0 A=0001 B=1110 S=0111
                6024  CI=0 A=0001 B=1110 S=1111
                6200  CI=0 A=0001 B=1111 S=1111
                6206  CI=0 A=0001 B=1111 S=1110
                6212  CI=0 A=0001 B=1111 S=1100
                6218  CI=0 A=0001 B=1111 S=1000
                6224  CI=0 A=0001 B=1111 S=0000
                6400  CI=0 A=0010 B=0000 S=0000
                6406  CI=0 A=0010 B=0000 S=1100
                6412  CI=0 A=0010 B=0000 S=1110
                6415  CI=0 A=0010 B=0000 S=0110
                6418  CI=0 A=0010 B=0000 S=0010
                6600  CI=0 A=0010 B=0001 S=0010
                6606  CI=0 A=0010 B=0001 S=0011
                6800  CI=0 A=0010 B=0010 S=0011
                6806  CI=0 A=0010 B=0010 S=0000
                6812  CI=0 A=0010 B=0010 S=0100
                7000  CI=0 A=0010 B=0011 S=0100
                7006  CI=0 A=0010 B=0011 S=0101
                7200  CI=0 A=0010 B=0100 S=0101
                7206  CI=0 A=0010 B=0100 S=0010
                7212  CI=0 A=0010 B=0100 S=0110
                7215  CI=0 A=0010 B=0100 S=1110
                7218  CI=0 A=0010 B=0100 S=0110
                7400  CI=0 A=0010 B=0101 S=0110
                7406  CI=0 A=0010 B=0101 S=0111
                7600  CI=0 A=0010 B=0110 S=0111
                7606  CI=0 A=0010 B=0110 S=0100
                7612  CI=0 A=0010 B=0110 S=0000
                7618  CI=0 A=0010 B=0110 S=1000
                7800  CI=0 A=0010 B=0111 S=1000
                7806  CI=0 A=0010 B=0111 S=1001
                8000  CI=0 A=0010 B=1000 S=1001
                8006  CI=0 A=0010 B=1000 S=0110
                8012  CI=0 A=0010 B=1000 S=0010
                8015  CI=0 A=0010 B=1000 S=1010
                8200  CI=0 A=0010 B=1001 S=1010
                8206  CI=0 A=0010 B=1001 S=1011
                8400  CI=0 A=0010 B=1010 S=1011
                8406  CI=0 A=0010 B=1010 S=1000
                8412  CI=0 A=0010 B=1010 S=1100
                8600  CI=0 A=0010 B=1011 S=1100
                8606  CI=0 A=0010 B=1011 S=1101
                8800  CI=0 A=0010 B=1100 S=1101
                8806  CI=0 A=0010 B=1100 S=1010
                8812  CI=0 A=0010 B=1100 S=1110
                8815  CI=0 A=0010 B=1100 S=0110
                8818  CI=0 A=0010 B=1100 S=1110
                9000  CI=0 A=0010 B=1101 S=1110
                9006  CI=0 A=0010 B=1101 S=1111
                9200  CI=0 A=0010 B=1110 S=1111
                9206  CI=0 A=0010 B=1110 S=1100
                9212  CI=0 A=0010 B=1110 S=1000
                9218  CI=0 A=0010 B=1110 S=0000
                9400  CI=0 A=0010 B=1111 S=0000
                9406  CI=0 A=0010 B=1111 S=0001
                9600  CI=0 A=0011 B=0000 S=0001
                9606  CI=0 A=0011 B=0000 S=1111
                9612  CI=0 A=0011 B=0000 S=1011
                9615  CI=0 A=0011 B=0000 S=0011
                9800  CI=0 A=0011 B=0001 S=0011
                9806  CI=0 A=0011 B=0001 S=0010
                9812  CI=0 A=0011 B=0001 S=0000
                9818  CI=0 A=0011 B=0001 S=0100
               10000  CI=0 A=0011 B=0010 S=0100
               10006  CI=0 A=0011 B=0010 S=0111
               10012  CI=0 A=0011 B=0010 S=0101
               10200  CI=0 A=0011 B=0011 S=0101
               10206  CI=0 A=0011 B=0011 S=0100
               10212  CI=0 A=0011 B=0011 S=0110
               10400  CI=0 A=0011 B=0100 S=0110
               10406  CI=0 A=0011 B=0100 S=0001
               10412  CI=0 A=0011 B=0100 S=0111
               10415  CI=0 A=0011 B=0100 S=1011
               10418  CI=0 A=0011 B=0100 S=0111
               10421  CI=0 A=0011 B=0100 S=1111
               10424  CI=0 A=0011 B=0100 S=0111
               10600  CI=0 A=0011 B=0101 S=0111
               10606  CI=0 A=0011 B=0101 S=0110
               10612  CI=0 A=0011 B=0101 S=0100
               10618  CI=0 A=0011 B=0101 S=0000
               10624  CI=0 A=0011 B=0101 S=1000
               10800  CI=0 A=0011 B=0110 S=1000
               10806  CI=0 A=0011 B=0110 S=1011
               10812  CI=0 A=0011 B=0110 S=1001
               11000  CI=0 A=0011 B=0111 S=1001
               11006  CI=0 A=0011 B=0111 S=1000
               11012  CI=0 A=0011 B=0111 S=1010
               11200  CI=0 A=0011 B=1000 S=1010
               11206  CI=0 A=0011 B=1000 S=0101
               11212  CI=0 A=0011 B=1000 S=0011
               11215  CI=0 A=0011 B=1000 S=1111
               11218  CI=0 A=0011 B=1000 S=1011
               11400  CI=0 A=0011 B=1001 S=1011
               11406  CI=0 A=0011 B=1001 S=1010
               11412  CI=0 A=0011 B=1001 S=1000
               11418  CI=0 A=0011 B=1001 S=1100
               11600  CI=0 A=0011 B=1010 S=1100
               11606  CI=0 A=0011 B=1010 S=1111
               11612  CI=0 A=0011 B=1010 S=1101
               11800  CI=0 A=0011 B=1011 S=1101
               11806  CI=0 A=0011 B=1011 S=1100
               11812  CI=0 A=0011 B=1011 S=1110
               12000  CI=0 A=0011 B=1100 S=1110
               12006  CI=0 A=0011 B=1100 S=1001
               12012  CI=0 A=0011 B=1100 S=1111
               12015  CI=0 A=0011 B=1100 S=0011
               12018  CI=0 A=0011 B=1100 S=1111
               12021  CI=0 A=0011 B=1100 S=0111
               12024  CI=0 A=0011 B=1100 S=1111
               12200  CI=0 A=0011 B=1101 S=1111
               12206  CI=0 A=0011 B=1101 S=1110
               12212  CI=0 A=0011 B=1101 S=1100
               12218  CI=0 A=0011 B=1101 S=1000
               12224  CI=0 A=0011 B=1101 S=0000
               12400  CI=0 A=0011 B=1110 S=0000
               12406  CI=0 A=0011 B=1110 S=0011
               12412  CI=0 A=0011 B=1110 S=0001
               12600  CI=0 A=0011 B=1111 S=0001
               12606  CI=0 A=0011 B=1111 S=0000
               12612  CI=0 A=0011 B=1111 S=0010
               12800  CI=0 A=0100 B=0000 S=0010
               12806  CI=0 A=0100 B=0000 S=1010
               12812  CI=0 A=0100 B=0000 S=1100
               12818  CI=0 A=0100 B=0000 S=0100
               13000  CI=0 A=0100 B=0001 S=0100
               13006  CI=0 A=0100 B=0001 S=0101
               13200  CI=0 A=0100 B=0010 S=0101
               13206  CI=0 A=0100 B=0010 S=0110
               13400  CI=0 A=0100 B=0011 S=0110
               13406  CI=0 A=0100 B=0011 S=0111
               13600  CI=0 A=0100 B=0100 S=0111
               13606  CI=0 A=0100 B=0100 S=0000
               13612  CI=0 A=0100 B=0100 S=1000
               13800  CI=0 A=0100 B=0101 S=1000
               13806  CI=0 A=0100 B=0101 S=1001
               14000  CI=0 A=0100 B=0110 S=1001
               14006  CI=0 A=0100 B=0110 S=1010
               14200  CI=0 A=0100 B=0111 S=1010
               14206  CI=0 A=0100 B=0111 S=1011
               14400  CI=0 A=0100 B=1000 S=1011
               14406  CI=0 A=0100 B=1000 S=0100
               14412  CI=0 A=0100 B=1000 S=1100
               14600  CI=0 A=0100 B=1001 S=1100
               14606  CI=0 A=0100 B=1001 S=1101
               14800  CI=0 A=0100 B=1010 S=1101
               14806  CI=0 A=0100 B=1010 S=1110
               15000  CI=0 A=0100 B=1011 S=1110
               15006  CI=0 A=0100 B=1011 S=1111
               15200  CI=0 A=0100 B=1100 S=1111
               15206  CI=0 A=0100 B=1100 S=1000
               15212  CI=0 A=0100 B=1100 S=0000
               15400  CI=0 A=0100 B=1101 S=0000
               15406  CI=0 A=0100 B=1101 S=0001
               15600  CI=0 A=0100 B=1110 S=0001
               15606  CI=0 A=0100 B=1110 S=0010
               15800  CI=0 A=0100 B=1111 S=0010
               15806  CI=0 A=0100 B=1111 S=0011
               16000  CI=0 A=0101 B=0000 S=0011
               16006  CI=0 A=0101 B=0000 S=1101
               16012  CI=0 A=0101 B=0000 S=0101
               16200  CI=0 A=0101 B=0001 S=0101
               16206  CI=0 A=0101 B=0001 S=0100
               16212  CI=0 A=0101 B=0001 S=0110
               16400  CI=0 A=0101 B=0010 S=0110
               16406  CI=0 A=0101 B=0010 S=0101
               16412  CI=0 A=0101 B=0010 S=0111
               16415  CI=0 A=0101 B=0010 S=0011
               16418  CI=0 A=0101 B=0010 S=0111
               16421  CI=0 A=0101 B=0010 S=1111
               16424  CI=0 A=0101 B=0010 S=0111
               16600  CI=0 A=0101 B=0011 S=0111
               16606  CI=0 A=0101 B=0011 S=0110
               16612  CI=0 A=0101 B=0011 S=0100
               16618  CI=0 A=0101 B=0011 S=0000
               16624  CI=0 A=0101 B=0011 S=1000
               16800  CI=0 A=0101 B=0100 S=1000
               16806  CI=0 A=0101 B=0100 S=1111
               16812  CI=0 A=0101 B=0100 S=1101
               16815  CI=0 A=0101 B=0100 S=1001
               17000  CI=0 A=0101 B=0101 S=1001
               17006  CI=0 A=0101 B=0101 S=1000
               17012  CI=0 A=0101 B=0101 S=1010
               17200  CI=0 A=0101 B=0110 S=1010
               17206  CI=0 A=0101 B=0110 S=1001
               17212  CI=0 A=0101 B=0110 S=1011
               17215  CI=0 A=0101 B=0110 S=1111
               17218  CI=0 A=0101 B=0110 S=1011
               17400  CI=0 A=0101 B=0111 S=1011
               17406  CI=0 A=0101 B=0111 S=1010
               17412  CI=0 A=0101 B=0111 S=1000
               17418  CI=0 A=0101 B=0111 S=1100
               17600  CI=0 A=0101 B=1000 S=1100
               17606  CI=0 A=0101 B=1000 S=0011
               17612  CI=0 A=0101 B=1000 S=1001
               17615  CI=0 A=0101 B=1000 S=0101
               17621  CI=0 A=0101 B=1000 S=1101
               17800  CI=0 A=0101 B=1001 S=1101
               17806  CI=0 A=0101 B=1001 S=1100
               17812  CI=0 A=0101 B=1001 S=1110
               18000  CI=0 A=0101 B=1010 S=1110
               18006  CI=0 A=0101 B=1010 S=1101
               18012  CI=0 A=0101 B=1010 S=1111
               18015  CI=0 A=0101 B=1010 S=1011
               18018  CI=0 A=0101 B=1010 S=1111
               18021  CI=0 A=0101 B=1010 S=0111
               18024  CI=0 A=0101 B=1010 S=1111
               18200  CI=0 A=0101 B=1011 S=1111
               18206  CI=0 A=0101 B=1011 S=1110
               18212  CI=0 A=0101 B=1011 S=1100
               18218  CI=0 A=0101 B=1011 S=1000
               18224  CI=0 A=0101 B=1011 S=0000
               18400  CI=0 A=0101 B=1100 S=0000
               18406  CI=0 A=0101 B=1100 S=0111
               18412  CI=0 A=0101 B=1100 S=0101
               18415  CI=0 A=0101 B=1100 S=0001
               18600  CI=0 A=0101 B=1101 S=0001
               18606  CI=0 A=0101 B=1101 S=0000
               18612  CI=0 A=0101 B=1101 S=0010
               18800  CI=0 A=0101 B=1110 S=0010
               18806  CI=0 A=0101 B=1110 S=0001
               18812  CI=0 A=0101 B=1110 S=0011
               18815  CI=0 A=0101 B=1110 S=0111
               18818  CI=0 A=0101 B=1110 S=0011
               19000  CI=0 A=0101 B=1111 S=0011
               19006  CI=0 A=0101 B=1111 S=0010
               19012  CI=0 A=0101 B=1111 S=0000
               19018  CI=0 A=0101 B=1111 S=0100
               19200  CI=0 A=0110 B=0000 S=0100
               19206  CI=0 A=0110 B=0000 S=1000
               19212  CI=0 A=0110 B=0000 S=0010
               19215  CI=0 A=0110 B=0000 S=1010
               19218  CI=0 A=0110 B=0000 S=1110
               19224  CI=0 A=0110 B=0000 S=0110
               19400  CI=0 A=0110 B=0001 S=0110
               19406  CI=0 A=0110 B=0001 S=0111
               19600  CI=0 A=0110 B=0010 S=0111
               19606  CI=0 A=0110 B=0010 S=0100
               19612  CI=0 A=0110 B=0010 S=0000
               19618  CI=0 A=0110 B=0010 S=1000
               19800  CI=0 A=0110 B=0011 S=1000
               19806  CI=0 A=0110 B=0011 S=1001
               20000  CI=0 A=0110 B=0100 S=1001
               20006  CI=0 A=0110 B=0100 S=1110
               20012  CI=0 A=0110 B=0100 S=1010
               20200  CI=0 A=0110 B=0101 S=1010
               20206  CI=0 A=0110 B=0101 S=1011
               20400  CI=0 A=0110 B=0110 S=1011
               20406  CI=0 A=0110 B=0110 S=1000
               20412  CI=0 A=0110 B=0110 S=1100
               20600  CI=0 A=0110 B=0111 S=1100
               20606  CI=0 A=0110 B=0111 S=1101
               20800  CI=0 A=0110 B=1000 S=1101
               20806  CI=0 A=0110 B=1000 S=0010
               20812  CI=0 A=0110 B=1000 S=1110
               20815  CI=0 A=0110 B=1000 S=0110
               20818  CI=0 A=0110 B=1000 S=1110
               21000  CI=0 A=0110 B=1001 S=1110
               21006  CI=0 A=0110 B=1001 S=1111
               21200  CI=0 A=0110 B=1010 S=1111
               21206  CI=0 A=0110 B=1010 S=1100
               21212  CI=0 A=0110 B=1010 S=1000
               21218  CI=0 A=0110 B=1010 S=0000
               21400  CI=0 A=0110 B=1011 S=0000
               21406  CI=0 A=0110 B=1011 S=0001
               21600  CI=0 A=0110 B=1100 S=0001
               21606  CI=0 A=0110 B=1100 S=0110
               21612  CI=0 A=0110 B=1100 S=0010
               21800  CI=0 A=0110 B=1101 S=0010
               21806  CI=0 A=0110 B=1101 S=0011
               22000  CI=0 A=0110 B=1110 S=0011
               22006  CI=0 A=0110 B=1110 S=0000
               22012  CI=0 A=0110 B=1110 S=0100
               22200  CI=0 A=0110 B=1111 S=0100
               22206  CI=0 A=0110 B=1111 S=0101
               22400  CI=0 A=0111 B=0000 S=0101
               22406  CI=0 A=0111 B=0000 S=1011
               22412  CI=0 A=0111 B=0000 S=0111
               22415  CI=0 A=0111 B=0000 S=1111
               22418  CI=0 A=0111 B=0000 S=0111
               22600  CI=0 A=0111 B=0001 S=0111
               22606  CI=0 A=0111 B=0001 S=0110
               22612  CI=0 A=0111 B=0001 S=0100
               22618  CI=0 A=0111 B=0001 S=0000
               22624  CI=0 A=0111 B=0001 S=1000
               22800  CI=0 A=0111 B=0010 S=1000
               22806  CI=0 A=0111 B=0010 S=1011
               22812  CI=0 A=0111 B=0010 S=1001
               23000  CI=0 A=0111 B=0011 S=1001
               23006  CI=0 A=0111 B=0011 S=1000
               23012  CI=0 A=0111 B=0011 S=1010
               23200  CI=0 A=0111 B=0100 S=1010
               23206  CI=0 A=0111 B=0100 S=1101
               23212  CI=0 A=0111 B=0100 S=1011
               23215  CI=0 A=0111 B=0100 S=1111
               23218  CI=0 A=0111 B=0100 S=1011
               23400  CI=0 A=0111 B=0101 S=1011
               23406  CI=0 A=0111 B=0101 S=1010
               23412  CI=0 A=0111 B=0101 S=1000
               23418  CI=0 A=0111 B=0101 S=1100
               23600  CI=0 A=0111 B=0110 S=1100
               23606  CI=0 A=0111 B=0110 S=1111
               23612  CI=0 A=0111 B=0110 S=1101
               23800  CI=0 A=0111 B=0111 S=1101
               23806  CI=0 A=0111 B=0111 S=1100
               23812  CI=0 A=0111 B=0111 S=1110
               24000  CI=0 A=0111 B=1000 S=1110
               24006  CI=0 A=0111 B=1000 S=0001
               24012  CI=0 A=0111 B=1000 S=1111
               24015  CI=0 A=0111 B=1000 S=0011
               24018  CI=0 A=0111 B=1000 S=1111
               24021  CI=0 A=0111 B=1000 S=0111
               24024  CI=0 A=0111 B=1000 S=1111
               24200  CI=0 A=0111 B=1001 S=1111
               24206  CI=0 A=0111 B=1001 S=1110
               24212  CI=0 A=0111 B=1001 S=1100
               24218  CI=0 A=0111 B=1001 S=1000
               24224  CI=0 A=0111 B=1001 S=0000
               24400  CI=0 A=0111 B=1010 S=0000
               24406  CI=0 A=0111 B=1010 S=0011
               24412  CI=0 A=0111 B=1010 S=0001
               24600  CI=0 A=0111 B=1011 S=0001
               24606  CI=0 A=0111 B=1011 S=0000
               24612  CI=0 A=0111 B=1011 S=0010
               24800  CI=0 A=0111 B=1100 S=0010
               24806  CI=0 A=0111 B=1100 S=0101
               24812  CI=0 A=0111 B=1100 S=0011
               24815  CI=0 A=0111 B=1100 S=0111
               24818  CI=0 A=0111 B=1100 S=0011
               25000  CI=0 A=0111 B=1101 S=0011
               25006  CI=0 A=0111 B=1101 S=0010
               25012  CI=0 A=0111 B=1101 S=0000
               25018  CI=0 A=0111 B=1101 S=0100
               25200  CI=0 A=0111 B=1110 S=0100
               25206  CI=0 A=0111 B=1110 S=0111
               25212  CI=0 A=0111 B=1110 S=0101
               25400  CI=0 A=0111 B=1111 S=0101
               25406  CI=0 A=0111 B=1111 S=0100
               25412  CI=0 A=0111 B=1111 S=0110
               25600  CI=0 A=1000 B=0000 S=0110
               25612  CI=0 A=1000 B=0000 S=1000
               25800  CI=0 A=1000 B=0001 S=1000
               25806  CI=0 A=1000 B=0001 S=1001
               26000  CI=0 A=1000 B=0010 S=1001
               26006  CI=0 A=1000 B=0010 S=1010
               26200  CI=0 A=1000 B=0011 S=1010
               26206  CI=0 A=1000 B=0011 S=1011
               26400  CI=0 A=1000 B=0100 S=1011
               26406  CI=0 A=1000 B=0100 S=1100
               26600  CI=0 A=1000 B=0101 S=1100
               26606  CI=0 A=1000 B=0101 S=1101
               26800  CI=0 A=1000 B=0110 S=1101
               26806  CI=0 A=1000 B=0110 S=1110
               27000  CI=0 A=1000 B=0111 S=1110
               27006  CI=0 A=1000 B=0111 S=1111
               27200  CI=0 A=1000 B=1000 S=1111
               27206  CI=0 A=1000 B=1000 S=0000
               27400  CI=0 A=1000 B=1001 S=0000
               27406  CI=0 A=1000 B=1001 S=0001
               27600  CI=0 A=1000 B=1010 S=0001
               27606  CI=0 A=1000 B=1010 S=0010
               27800  CI=0 A=1000 B=1011 S=0010
               27806  CI=0 A=1000 B=1011 S=0011
               28000  CI=0 A=1000 B=1100 S=0011
               28006  CI=0 A=1000 B=1100 S=0100
               28200  CI=0 A=1000 B=1101 S=0100
               28206  CI=0 A=1000 B=1101 S=0101
               28400  CI=0 A=1000 B=1110 S=0101
               28406  CI=0 A=1000 B=1110 S=0110
               28600  CI=0 A=1000 B=1111 S=0110
               28606  CI=0 A=1000 B=1111 S=0111
               28800  CI=0 A=1001 B=0000 S=0111
               28806  CI=0 A=1001 B=0000 S=1001
               29000  CI=0 A=1001 B=0001 S=1001
               29006  CI=0 A=1001 B=0001 S=1000
               29012  CI=0 A=1001 B=0001 S=1010
               29200  CI=0 A=1001 B=0010 S=1010
               29206  CI=0 A=1001 B=0010 S=1001
               29212  CI=0 A=1001 B=0010 S=1011
               29215  CI=0 A=1001 B=0010 S=1111
               29218  CI=0 A=1001 B=0010 S=1011
               29400  CI=0 A=1001 B=0011 S=1011
               29406  CI=0 A=1001 B=0011 S=1010
               29412  CI=0 A=1001 B=0011 S=1000
               29418  CI=0 A=1001 B=0011 S=1100
               29600  CI=0 A=1001 B=0100 S=1100
               29606  CI=0 A=1001 B=0100 S=1011
               29612  CI=0 A=1001 B=0100 S=1001
               29615  CI=0 A=1001 B=0100 S=0101
               29621  CI=0 A=1001 B=0100 S=1101
               29800  CI=0 A=1001 B=0101 S=1101
               29806  CI=0 A=1001 B=0101 S=1100
               29812  CI=0 A=1001 B=0101 S=1110
               30000  CI=0 A=1001 B=0110 S=1110
               30006  CI=0 A=1001 B=0110 S=1101
               30012  CI=0 A=1001 B=0110 S=1111
               30015  CI=0 A=1001 B=0110 S=1011
               30018  CI=0 A=1001 B=0110 S=1111
               30021  CI=0 A=1001 B=0110 S=0111
               30024  CI=0 A=1001 B=0110 S=1111
               30200  CI=0 A=1001 B=0111 S=1111
               30206  CI=0 A=1001 B=0111 S=1110
               30212  CI=0 A=1001 B=0111 S=1100
               30218  CI=0 A=1001 B=0111 S=1000
               30224  CI=0 A=1001 B=0111 S=0000
               30400  CI=0 A=1001 B=1000 S=0000
               30406  CI=0 A=1001 B=1000 S=1111
               30412  CI=0 A=1001 B=1000 S=1101
               30415  CI=0 A=1001 B=1000 S=0001
               30600  CI=0 A=1001 B=1001 S=0001
               30606  CI=0 A=1001 B=1001 S=0000
               30612  CI=0 A=1001 B=1001 S=0010
               30800  CI=0 A=1001 B=1010 S=0010
               30806  CI=0 A=1001 B=1010 S=0001
               30812  CI=0 A=1001 B=1010 S=0011
               30815  CI=0 A=1001 B=1010 S=0111
               30818  CI=0 A=1001 B=1010 S=0011
               31000  CI=0 A=1001 B=1011 S=0011
               31006  CI=0 A=1001 B=1011 S=0010
               31012  CI=0 A=1001 B=1011 S=0000
               31018  CI=0 A=1001 B=1011 S=0100
               31200  CI=0 A=1001 B=1100 S=0100
               31206  CI=0 A=1001 B=1100 S=0011
               31212  CI=0 A=1001 B=1100 S=0001
               31215  CI=0 A=1001 B=1100 S=1101
               31221  CI=0 A=1001 B=1100 S=0101
               31400  CI=0 A=1001 B=1101 S=0101
               31406  CI=0 A=1001 B=1101 S=0100
               31412  CI=0 A=1001 B=1101 S=0110
               31600  CI=0 A=1001 B=1110 S=0110
               31606  CI=0 A=1001 B=1110 S=0101
               31612  CI=0 A=1001 B=1110 S=0111
               31615  CI=0 A=1001 B=1110 S=0011
               31618  CI=0 A=1001 B=1110 S=0111
               31621  CI=0 A=1001 B=1110 S=1111
               31624  CI=0 A=1001 B=1110 S=0111
               31800  CI=0 A=1001 B=1111 S=0111
               31806  CI=0 A=1001 B=1111 S=0110
               31812  CI=0 A=1001 B=1111 S=0100
               31818  CI=0 A=1001 B=1111 S=0000
               31824  CI=0 A=1001 B=1111 S=1000
               32000  CI=0 A=1010 B=0000 S=1000
               32006  CI=0 A=1010 B=0000 S=0100
               32012  CI=0 A=1010 B=0000 S=0110
               32015  CI=0 A=1010 B=0000 S=1110
               32018  CI=0 A=1010 B=0000 S=1010
               32200  CI=0 A=1010 B=0001 S=1010
               32206  CI=0 A=1010 B=0001 S=1011
               32400  CI=0 A=1010 B=0010 S=1011
               32406  CI=0 A=1010 B=0010 S=1000
               32412  CI=0 A=1010 B=0010 S=1100
               32600  CI=0 A=1010 B=0011 S=1100
               32606  CI=0 A=1010 B=0011 S=1101
               32800  CI=0 A=1010 B=0100 S=1101
               32806  CI=0 A=1010 B=0100 S=1010
               32812  CI=0 A=1010 B=0100 S=1110
               32815  CI=0 A=1010 B=0100 S=0110
               32818  CI=0 A=1010 B=0100 S=1110
               33000  CI=0 A=1010 B=0101 S=1110
               33006  CI=0 A=1010 B=0101 S=1111
               33200  CI=0 A=1010 B=0110 S=1111
               33206  CI=0 A=1010 B=0110 S=1100
               33212  CI=0 A=1010 B=0110 S=1000
               33218  CI=0 A=1010 B=0110 S=0000
               33400  CI=0 A=1010 B=0111 S=0000
               33406  CI=0 A=1010 B=0111 S=0001
               33600  CI=0 A=1010 B=1000 S=0001
               33606  CI=0 A=1010 B=1000 S=1110
               33612  CI=0 A=1010 B=1000 S=1010
               33615  CI=0 A=1010 B=1000 S=0010
               33800  CI=0 A=1010 B=1001 S=0010
               33806  CI=0 A=1010 B=1001 S=0011
               34000  CI=0 A=1010 B=1010 S=0011
               34006  CI=0 A=1010 B=1010 S=0000
               34012  CI=0 A=1010 B=1010 S=0100
               34200  CI=0 A=1010 B=1011 S=0100
               34206  CI=0 A=1010 B=1011 S=0101
               34400  CI=0 A=1010 B=1100 S=0101
               34406  CI=0 A=1010 B=1100 S=0010
               34412  CI=0 A=1010 B=1100 S=0110
               34415  CI=0 A=1010 B=1100 S=1110
               34418  CI=0 A=1010 B=1100 S=0110
               34600  CI=0 A=1010 B=1101 S=0110
               34606  CI=0 A=1010 B=1101 S=0111
               34800  CI=0 A=1010 B=1110 S=0111
               34806  CI=0 A=1010 B=1110 S=0100
               34812  CI=0 A=1010 B=1110 S=0000
               34818  CI=0 A=1010 B=1110 S=1000
               35000  CI=0 A=1010 B=1111 S=1000
               35006  CI=0 A=1010 B=1111 S=1001
               35200  CI=0 A=1011 B=0000 S=1001
               35206  CI=0 A=1011 B=0000 S=0111
               35212  CI=0 A=1011 B=0000 S=0011
               35215  CI=0 A=1011 B=0000 S=1011
               35400  CI=0 A=1011 B=0001 S=1011
               35406  CI=0 A=1011 B=0001 S=1010
               35412  CI=0 A=1011 B=0001 S=1000
               35418  CI=0 A=1011 B=0001 S=1100
               35600  CI=0 A=1011 B=0010 S=1100
               35606  CI=0 A=1011 B=0010 S=1111
               35612  CI=0 A=1011 B=0010 S=1101
               35800  CI=0 A=1011 B=0011 S=1101
               35806  CI=0 A=1011 B=0011 S=1100
               35812  CI=0 A=1011 B=0011 S=1110
               36000  CI=0 A=1011 B=0100 S=1110
               36006  CI=0 A=1011 B=0100 S=1001
               36012  CI=0 A=1011 B=0100 S=1111
               36015  CI=0 A=1011 B=0100 S=0011
               36018  CI=0 A=1011 B=0100 S=1111
               36021  CI=0 A=1011 B=0100 S=0111
               36024  CI=0 A=1011 B=0100 S=1111
               36200  CI=0 A=1011 B=0101 S=1111
               36206  CI=0 A=1011 B=0101 S=1110
               36212  CI=0 A=1011 B=0101 S=1100
               36218  CI=0 A=1011 B=0101 S=1000
               36224  CI=0 A=1011 B=0101 S=0000
               36400  CI=0 A=1011 B=0110 S=0000
               36406  CI=0 A=1011 B=0110 S=0011
               36412  CI=0 A=1011 B=0110 S=0001
               36600  CI=0 A=1011 B=0111 S=0001
               36606  CI=0 A=1011 B=0111 S=0000
               36612  CI=0 A=1011 B=0111 S=0010
               36800  CI=0 A=1011 B=1000 S=0010
               36806  CI=0 A=1011 B=1000 S=1101
               36812  CI=0 A=1011 B=1000 S=1011
